{
  "project_info": {
    "project_number": "1058062494318",
    "project_id": "grab-a-gram-189407",
    "storage_bucket": "grab-a-gram-189407.appspot.com"
  },
  "client": [
    {
      "client_info": {
        "mobilesdk_app_id": "1:1058062494318:android:ccd10f6845c17b3a74547f",
        "android_client_info": {
          "package_name": "com.splitreef.grabagramplaystore"
        }
      },
      "oauth_client": [
        {
          "client_id": "1058062494318-1k53krkmjegkmg3jesss600att0edapi.apps.googleusercontent.com",
          "client_type": 3
        }
      ],
      "api_key": [
        {
          "current_key": "AIzaSyARtnScPHZhqCPEF0ujsHwvM9Rlc-iLZo0"
        }
      ],
      "services": {
        "appinvite_service": {
          "other_platform_oauth_client": [
            {
              "client_id": "1058062494318-1k53krkmjegkmg3jesss600att0edapi.apps.googleusercontent.com",
              "client_type": 3
            },
            {
              "client_id": "1058062494318-hpofg5bqgdm7co9cn1avdfkrp3stsgn1.apps.googleusercontent.com",
              "client_type": 2,
              "ios_info": {
                "bundle_id": "com.splitreef.grabagramappstore"
              }
            }
          ]
        }
      }
    }
  ],
  "configuration_version": "1"
}